<?xml version="1.0" encoding="utf-8"?>
<!-- Generator: Adobe Illustrator 18.1.1, SVG Export Plug-In . SVG Version: 6.00 Build 0)  -->
<svg version="1.1" id="Layer_1" xmlns="http://www.w3.org/2000/svg" xmlns:xlink="http://www.w3.org/1999/xlink" x="0px" y="0px"
	 viewBox="0 0 34 34" enable-background="new 0 0 34 34" xml:space="preserve">
<path fill="#DB4437" d="M34,8.5C34,3.8,30.2,0,25.5,0h-17C3.8,0,0,3.8,0,8.5v17C0,30.2,3.8,34,8.5,34h17c4.7,0,8.5-3.8,8.5-8.5V8.5z
	"/>
<path fill="#FFFFFF" d="M14.6,24.7c-2,0-3.5-1.3-3.5-2.8c0-1.5,1.8-2.8,3.8-2.7c0.5,0,0.9,0.1,1.3,0.2c1.1,0.8,1.9,1.2,2.1,2.1
	c0,0.2,0.1,0.4,0.1,0.5C18.4,23.5,17.4,24.7,14.6,24.7 M15.1,15.6c-1.4,0-2.6-1.5-2.9-3.3c-0.2-1.8,0.7-3.1,2-3.1
	c1.4,0,2.6,1.5,2.9,3.3S16.5,15.7,15.1,15.6 M17.9,18.3c-0.5-0.3-1.4-1.2-1.4-1.6c0-0.6,0.2-0.8,1-1.5c0.9-0.7,1.5-1.6,1.5-2.8
	c0-1.3-0.6-2.6-1.7-3H19l1.2-0.9h-5.3c-2.4,0-4.6,1.8-4.6,3.9c0,2.1,1.6,3.8,4,3.8c0.2,0,0.3,0,0.5,0c-0.2,0.3-0.3,0.6-0.3,1
	c0,0.6,0.3,1.1,0.7,1.5c-0.3,0-0.6,0-0.9,0c-2.9,0-5.2,1.9-5.2,3.8c0,1.9,2.5,3.1,5.4,3.1c3.3,0,5.2-1.9,5.2-3.8
	C19.8,20.2,19.3,19.3,17.9,18.3 M25.6,15.8h-2.1v-2.1h-1.7v2.1h-2.1v1.7h2.1v2.1h1.7v-2.1h2.1V15.8z"/>
</svg>
