
<svg xmlns="http://www.w3.org/2000/svg" version="1.1" xmlns:xlink="http://www.w3.org/1999/xlink" preserveAspectRatio="none" x="0px" y="0px" width="271px" height="101px" viewBox="0 0 271 101">
<defs>
<g id="Layer0_0_FILL">
<path fill="#9FBFDB" stroke="none" d="
M 251.2 91.2
Q 251 91.3 250.8 91.5
L 250.8 91.55
Q 248.9 93.55 246.3 95.2
L 246.25 95.2
Q 241 98.6 235.95 98.6 235.9 98.6 235.8 98.6 231.2 98.6 229.55 95.6 228.7 94.1 228.85 92.3 228.85 92.25 228.85 92.2 228.85 92.1 228.85 91.95 228.85 91.5 228.6 91.2 228.25 90.45 227.2 90.45 226.6 90.4 225.85 90.9 225.8 90.9 225.8 90.95
L 225.75 91
Q 225.55 91.1 225.4 91.25 225.3 91.35 225.15 91.5 223.2 93.5 220.6 95.2
L 220.55 95.2
Q 215.3 98.6 210.25 98.6 210.2 98.6 210.15 98.6 205.55 98.6 203.85 95.6 203 94.1 203.15 92.3 203.15 92.25 203.15 92.2 203.15 92.1 203.15 91.95 203.15 91.55 203 91.3 202.55 90.45 201.55 90.45 200.85 90.4 200.1 91 200 91.05 199.9 91.15 199.8 91.2 199.75 91.25 199.65 91.35 199.55 91.5 197.55 93.5 194.95 95.2
L 194.9 95.2
Q 189.7 98.6 184.65 98.6 184.6 98.6 184.55 98.6 179.9 98.6 178.25 95.6 177.4 94.05 177.5 92.3 177.65 91.9 177.45 91.5 177.4 91.4 177.35 91.35 177.05 90.45 175.9 90.45 175.2 90.4 174.45 91 174.35 91.05 174.25 91.15 174.15 91.2 174.1 91.25 174 91.35 173.85 91.5 171.9 93.5 169.3 95.2
L 169.35 95.2
Q 164 98.6 158.95 98.6 158.9 98.6 158.85 98.6 154.2 98.6 152.55 95.6 151.7 94.1 151.85 92.3 151.9 92.1 151.9 91.95 151.9 91.55 151.75 91.3
L 151.7 91.25
Q 151.2 90.45 150.25 90.45 149.6 90.4 148.85 90.95 148.6 91.05 148.45 91.25 148.35 91.35 148.2 91.5 146.25 93.5 143.65 95.2
L 143.6 95.2
Q 138.35 98.6 133.35 98.6 133.3 98.6 133.2 98.6 128.6 98.6 126.9 95.6 126.1 94.1 126.2 92.25
L 126.2 92.2
Q 126.2 92.1 126.2 91.95 126.2 91.55 126.05 91.3 125.75 90.45 124.6 90.45 123.9 90.4 123.15 91 123.05 91.05 123 91.1 122.7 91.25 122.55 91.5 120.6 93.5 118 95.2 112.75 98.6 107.65 98.6 107.6 98.6 107.55 98.6 102.95 98.6 101.3 95.6 100.45 94.05 100.55 92.3 100.7 91.9 100.5 91.5 100.45 91.4 100.4 91.35 100.1 90.45 98.95 90.45 98.35 90.4 97.6 90.9 97.55 90.9 97.55 90.95
L 97.5 91
Q 97.3 91.1 97.15 91.25 97.05 91.35 96.9 91.5 94.95 93.5 92.35 95.2
L 92.3 95.2
Q 87.05 98.6 82 98.6 81.95 98.6 81.9 98.6 77.3 98.6 75.6 95.6 74.75 94.1 74.9 92.3 74.9 92.25 74.9 92.2 74.9 92.1 74.9 91.95 74.9 91.55 74.75 91.3 74.3 90.45 73.3 90.45 72.6 90.45 72 90.95 71.7 91.05 71.5 91.25 71.4 91.35 71.25 91.5 69.3 93.5 66.7 95.2
L 66.65 95.2
Q 61.45 98.6 56.4 98.6 56.35 98.6 56.3 98.6 51.65 98.6 50 95.6 49.15 94.05 49.25 92.3 49.4 91.9 49.2 91.5 49.15 91.4 49.1 91.35 48.8 90.45 47.65 90.45 47.05 90.4 46.3 90.9 46.25 90.9 46.25 90.95
L 46.2 91
Q 46.05 91.05 45.95 91.2 45.7 91.3 45.6 91.55 43.65 93.5 41.05 95.2
L 41.1 95.2
Q 35.75 98.6 30.7 98.6 30.65 98.6 30.6 98.6 26 98.6 24.3 95.6 23.45 94.1 23.6 92.3 23.6 92.25 23.6 92.2 23.6 92.1 23.6 91.95 23.6 91.55 23.45 91.3 23 90.45 22 90.45 21.25 90.4 20.5 91 20.35 91.1 20.25 91.25
L 20.2 91.3
Q 20.1 91.35 19.95 91.5 18.35 93.15 16.35 94.55 16 94.75 15.65 95 15.3 95.25 15.25 95.65 15.15 96.05 15.35 96.4 15.4 96.45 15.45 96.55
L 15.55 96.6
Q 15.7 96.7 15.9 96.8 15.95 96.85 16 96.85 16.1 96.85 16.2 96.85 16.5 96.85 16.75 96.7 19.4 95 21.4 92.9
L 21.35 92.9
Q 21.45 92.8 21.55 92.7
L 21.6 92.7
Q 21.55 94.75 22.55 96.55 24.7 100.6 30.6 100.6 30.65 100.6 30.7 100.6 36.25 100.6 42.15 96.9 44.95 95.1 47.05 92.9 47.1 92.85 47.15 92.75
L 47.2 92.7 47.25 92.7
Q 47.25 94.75 48.25 96.55
L 48.25 96.5
Q 50.25 100.6 56.3 100.6 56.35 100.6 56.4 100.6 61.95 100.6 67.75 96.9 70.6 95.1 72.7 92.9
L 72.65 92.9
Q 72.75 92.8 72.85 92.75 72.85 92.7 72.9 92.7 72.85 94.75 73.85 96.55 76 100.6 81.9 100.6 81.95 100.6 82 100.6 87.55 100.6 93.4 96.9 96.25 95.1 98.35 92.9
L 98.3 92.9
Q 98.4 92.8 98.5 92.7
L 98.55 92.7
Q 98.55 94.75 99.55 96.55
L 99.55 96.5
Q 101.55 100.6 107.55 100.6 107.6 100.6 107.65 100.6 113.25 100.6 119.1 96.9 121.9 95.1 124 92.9 124 92.85 124.05 92.85 124.1 92.8 124.2 92.7 124.2 94.75 125.1 96.5
L 125.15 96.55
Q 127.3 100.6 133.2 100.6 133.3 100.6 133.35 100.6 138.85 100.6 144.7 96.9 147.55 95.1 149.65 92.9
L 149.6 92.9
Q 149.7 92.8 149.75 92.75 149.8 92.7 149.85 92.7
L 149.85 92.75
Q 149.8 94.8 150.8 96.55 152.9 100.6 158.85 100.6 158.9 100.6 158.95 100.6 164.5 100.6 170.4 96.9 173.2 95.1 175.3 92.9
L 175.25 92.9
Q 175.35 92.8 175.4 92.75 175.45 92.7 175.5 92.65
L 175.5 92.7
Q 175.5 94.75 176.5 96.55 178.6 100.6 184.55 100.6 184.6 100.6 184.65 100.6 190.2 100.6 196 96.9 198.85 95.1 201 92.9 201.05 92.85 201.1 92.75 201.1 92.7 201.15 92.7 201.1 94.75 202.1 96.55 204.25 100.6 210.15 100.6 210.2 100.6 210.25 100.6 215.8 100.6 221.65 96.9 224.5 95.1 226.6 92.9
L 226.55 92.9
Q 226.65 92.8 226.75 92.7 226.8 92.7 226.85 92.65 226.8 94.75 227.8 96.55 229.9 100.6 235.8 100.6 235.9 100.6 235.95 100.6 241.5 100.6 247.35 96.9 250.2 95.1 252.2 92.9
L 252.25 92.9
Q 252.3 92.8 252.35 92.8 252.4 92.75 252.45 92.7 252.55 92.65 252.65 92.6 252.75 92.5 252.85 92.45 253.1 92.45 253.3 92.35 253.45 92.25 253.55 92.15 253.85 91.85 253.85 91.45 253.85 91.05 253.55 90.75 253.25 90.45 252.85 90.45 252.25 90.4 251.65 90.8 251.5 90.9 251.4 91 251.25 91.1 251.2 91.2
M 227.05 92.55
Q 227.15 92.45 227.2 92.45 227.25 92.45 227.3 92.45 227.65 92.85 227.3 92.7 227.15 92.65 227.05 92.55
M 60.6 39.95
Q 60.3 39.65 59.9 39.65
L 54.7 39.65
Q 54.3 39.65 54 39.95 53.7 40.25 53.7 40.65
L 53.7 46.6
Q 53.7 47 54 47.3 54.3 47.6 54.7 47.6
L 59.9 47.6
Q 60.3 47.6 60.6 47.3 60.9 47 60.9 46.6
L 60.9 40.65
Q 60.9 40.25 60.6 39.95
M 55.7 41.65
L 58.9 41.65 58.9 45.6 55.7 45.6 55.7 41.65
M 47.1 39.95
Q 46.8 39.65 46.4 39.65
L 41.2 39.65
Q 40.8 39.65 40.5 39.95 40.2 40.25 40.2 40.65
L 40.2 46.6
Q 40.2 47 40.5 47.3 40.8 47.6 41.2 47.6
L 46.4 47.6
Q 46.8 47.6 47.1 47.3 47.4 47 47.4 46.6
L 47.4 40.65
Q 47.4 40.25 47.1 39.95
M 42.2 41.65
L 45.4 41.65 45.4 45.6 42.2 45.6 42.2 41.65
M 41.7 27.05
Q 41.7 26.65 41.4 26.35 41.1 26.05 40.7 26.05
L 35.55 26.05
Q 35.15 26.05 34.85 26.35 34.55 26.65 34.55 27.05
L 34.55 32.95
Q 34.55 33.35 34.85 33.65 35.15 33.95 35.55 33.95
L 40.7 33.95
Q 41.1 33.95 41.4 33.65 41.7 33.35 41.7 32.95
L 41.7 27.05
M 36.55 28.05
L 39.7 28.05 39.7 31.95 36.55 31.95 36.55 28.05
M 54.25 26.35
Q 53.95 26.05 53.55 26.05
L 48.35 26.05
Q 47.95 26.05 47.65 26.35 47.35 26.65 47.35 27.05
L 47.35 32.95
Q 47.35 33.35 47.65 33.65 47.95 33.95 48.35 33.95
L 53.55 33.95
Q 53.95 33.95 54.25 33.65 54.55 33.35 54.55 32.95
L 54.55 27.05
Q 54.55 26.65 54.25 26.35
M 52.55 28.05
L 52.55 31.95 49.35 31.95 49.35 28.05 52.55 28.05
M 60.35 26.35
Q 60.05 26.65 60.05 27.05
L 60.05 32.95
Q 60.05 33.35 60.35 33.65 60.65 33.95 61.05 33.95
L 66.25 33.95
Q 66.65 33.95 66.95 33.65 67.25 33.35 67.25 32.95
L 67.25 27.05
Q 67.25 26.65 66.95 26.35 66.65 26.05 66.25 26.05
L 61.05 26.05
Q 60.65 26.05 60.35 26.35
M 62.05 28.05
L 65.25 28.05 65.25 31.95 62.05 31.95 62.05 28.05 Z"/>

<path fill="#4F8EC4" stroke="none" d="
M 244.55 36.6
Q 244.15 36.6 243.85 36.9 243.55 37.2 243.55 37.6
L 243.55 54 220.5 54 220.5 49.2
Q 220.5 48.8 220.2 48.5 219.9 48.2 219.5 48.2
L 71.45 48.2 71.45 20 84.1 20
Q 84.5 20 84.8 19.7 85.1 19.4 85.1 19
L 85.1 11.1
Q 85.1 10.7 84.8 10.4 84.5 10.1 84.1 10.1
L 82.85 10.1 82.85 7
Q 82.85 6.6 82.55 6.3 82.25 6 81.85 6
L 76 6
Q 75.6 6 75.3 6.3 75 6.6 75 7
L 75 10.1 71.2 10.1 73.4 5.7
Q 73.5 5.5 73.5 5.25
L 73.5 1
Q 73.5 0.6 73.2 0.3 72.9 0 72.5 0
L 28.85 0
Q 28.45 0 28.15 0.3 27.85 0.6 27.85 1
L 27.85 5.15
Q 27.8 5.45 27.95 5.7
L 30.15 10.1 27.35 10.1
Q 26.95 10.1 26.65 10.4 26.35 10.7 26.35 11.1
L 26.35 19
Q 26.35 19.4 26.65 19.7 26.95 20 27.35 20
L 30.25 20 30.25 57.25 25.25 57.25 25.25 23.9
Q 25.25 23.5 24.95 23.2 24.65 22.9 24.25 22.9
L 15.35 22.9
Q 14.95 22.9 14.65 23.2 14.35 23.5 14.35 23.9
L 14.35 45.7 9.2 57.25 1.25 57.25
Q 0.85 57.25 0.55 57.55 0.25 57.8 0.25 58.25 0.05 65.35 1.6 72 1.6 72.05 1.65 72.15
L 1.65 72.2
Q 1.65 72.25 1.65 72.3 3.5 79.7 7.6 86.4 7.65 86.45 7.7 86.6 10.9 91.75 15.45 96.55 15.4 96.45 15.35 96.4 15.15 96.05 15.25 95.65 15.3 95.25 15.65 95 16 94.75 16.35 94.55 12.95 90.9 10.4 87.05
L 177.1 87.05
Q 177.2 87.05 177.35 87.05
L 251.15 87.05
Q 251.25 89 251.65 90.8 252.25 90.4 252.85 90.45 253.25 90.45 253.55 90.75 253.85 91.05 253.85 91.45 253.85 91.85 253.55 92.15 253.45 92.25 253.3 92.35 253.55 92.2 253.75 91.95 253.95 91.6 253.85 91.2 253.15 88.8 253.1 86.1
L 253.1 86
Q 253.05 84.05 253.35 81.75
L 265 72.3 265.05 72.3
Q 265.05 72.25 265.1 72.25
L 265.15 72.2
Q 265.3 72 265.35 71.8 265.35 71.75 265.4 71.75
L 270.55 55.3
Q 270.65 55 270.55 54.7 270.45 54.4 270.2 54.2 269.9 54 269.6 54
L 250.45 54 250.45 37.6
Q 250.45 37.2 250.15 36.9 249.85 36.6 249.45 36.6
L 244.55 36.6
M 245.55 38.6
L 248.45 38.6 248.45 54 245.55 54 245.55 38.6
M 268.25 56
L 263.7 70.5 221.8 70.5
Q 221.55 70.5 221.35 70.6 221.15 70.7 221 70.9
L 214.7 79.35 177.05 85.05 60.3 85.05 46.35 71.15
Q 46.05 70.85 45.65 70.85
L 3.4 70.9
Q 2.15 65.25 2.25 59.25
L 43.8 59.25 49.4 64.8
Q 49.7 65.05 50.1 65.05
L 204.45 65.05
Q 204.85 65.05 205.15 64.8
L 211.25 59.3
Q 211.4 59.15 211.5 58.95 211.55 58.75 211.55 58.55
L 211.55 56 268.25 56
M 251.8 80.5
Q 251.45 80.75 251.4 81.15 251.1 83.2 251.1 85.05
L 190.6 85.05 215.4 81.3
Q 215.8 81.25 216.05 80.9
L 222.3 72.5 261.6 72.5 251.8 80.5
M 218.5 50.2
L 218.5 54 44.2 54
Q 43.8 54 43.5 54.3 43.2 54.6 43.2 55
L 43.2 57.25 32.25 57.25 32.25 20 69.45 20 69.45 49.2
Q 69.45 49.6 69.75 49.9 70.05 50.2 70.45 50.2
L 218.5 50.2
M 209.55 56
L 209.55 58.1 204.05 63.05 50.55 63.05 45.2 57.85 45.2 56 209.55 56
M 83.1 12.1
L 83.1 18 28.35 18 28.35 12.1 83.1 12.1
M 71.5 2
L 71.5 4.25 29.85 4.25 29.85 2 71.5 2
M 77 10.1
L 77 8 80.85 8 80.85 10.1 77 10.1
M 70.9 6.25
L 68.95 10.1 32.4 10.1 30.5 6.25 70.9 6.25
M 16.35 45.9
L 16.35 24.9 23.25 24.9 23.25 57.25 11.4 57.25 16.3 46.3
Q 16.35 46.1 16.35 45.9
M 9.1 85.05
Q 5.6 79.25 3.9 72.9
L 45.25 72.85 57.5 85.05 9.1 85.05 Z"/>
</g>
</defs>

<g transform="matrix( 1, 0, 0, 1, 0,0) ">
<use xlink:href="#Layer0_0_FILL"/>
</g>
</svg>
