<?xml version="1.0" encoding="utf-8"?>
<!-- Generator: Adobe Illustrator 18.1.1, SVG Export Plug-In . SVG Version: 6.00 Build 0)  -->
<svg version="1.1" id="Layer_1" xmlns="http://www.w3.org/2000/svg" xmlns:xlink="http://www.w3.org/1999/xlink" x="0px" y="0px"
	 viewBox="0 0 34 34" enable-background="new 0 0 34 34" xml:space="preserve">
<path fill="#2CA5E0" d="M34,8.5C34,3.8,30.2,0,25.5,0h-17C3.8,0,0,3.8,0,8.5v17C0,30.2,3.8,34,8.5,34h17c4.7,0,8.5-3.8,8.5-8.5V8.5z
	"/>
<path id="path3043" fill="#FFFFFF" d="M21.2,20.2c0.5-1.4,2.4-6.7,2.7-8.1c0.3-1.6-0.4-1.7-2-1.2c-1.6,0.5-5.8,2.1-6.5,2.3
	c-0.7,0.2-4.1,1.4-4.8,1.7c-1.4,0.8-0.7,2,0.9,2.6c4.8,2.3,3.5,1.1,5.6,5.4c0.4,1.1,1.5,3,2.5,1.6C20.1,23.7,20.8,21.3,21.2,20.2z"
	/>
</svg>
